{
    "openapi": "3.0.0",
    "info": {
        "title": "Teste Documentation",
        "description": "This is a API test",
        "version": "1.0.0",
        "contact": {
            "email": "luizgustavo1513@gmail.com"
        }
    },
    "paths":{
        "/categories": {
            "post": {
                "tags": ["Category"],
                "summary": "Create a category",
                "description": "Create a new category",
                "requestBody":{
                    "content":{
                        "application/json":{
                            "schema":{
                                "type": "object",
                                "properties": {
                                    "name": {
                                        "type": "string"
                                    },
                                    "description": {
                                        "type":"string"
                                    }
                                },
                                "example": {
                                    "name":"CategoryTest",
                                    "description": "CategoryDescriptionTest"
                                }
                            }
                        }
                    }
                },
                "responses": {
                    "201": {
                        "description": "Created"
                    },
                    "500":{
                        "description": "Category Already Exists"
                    }
                }
            },
            "get":{
                "tags":["Category"],
                "summary": "List all categories",
                "description": "List all categories",
                "responses":{
                    "200":{
                        "description": "success",
                        "content":{
                            "application/json": {
                                "schema":{
                                    "type": "array",
                                    "items":{
                                        "type": "object",
                                        "properties": {
                                            "name":{
                                                "type": "string"
                                            },
                                            "description":{
                                                "type":"string"
                                            }
                                        }
                                    }
                                }
                            }
                        }
                    }
                }
            }
        },
        "/categories/import":{
            "post":{
                "tags":["Category file"],
                "summary":"Import category",
                "description":"Import category file",
                "requestBody":{
                    "content":{
                        "multipart/form-data":{
                            "schema":{
                                "type": "object",
                                "properties":{
                                    "file":{
                                        "type":"string",
                                        "format": "binary"
                                    }
                                }
                            }
                        }
                    }
                },
                "responses":{
                    "201":{
                        "description":"Category imported"
                    }
                }

            }
        },
        "/specs":{
            "post":{
                "tags": ["Specification"],
                "summary":"Create a specification",
                "description": "Create a new specification",
                "requestBody":{
                    "content":{
                        "application/json":{
                            "schema":{
                                "type":"object",
                                "properties":{
                                    "name":{
                                        "type":"string"
                                    },
                                    "description":{
                                        "type":"string"
                                    }
                                },
                                "example":{
                                    "name": "SpecificationTest",
                                    "description":"SpecificationDescriptionTest"
                                }
                            }
                        }
                    }
                },
                "responses":{
                    "201":{
                        "description": "Created"
                    },
                    "500":{
                        "description": "Specification Already Exists"
                    }
                }
            },
            "get":{
                "tags": ["Specification"],
                "summary":"List all specifications",
                "description":"List all specifications",
                "responses":{
                    "200":{
                        "description":"success",
                        "content":{
                            "application/json":{
                                "schema":{
                                    "type":"array",
                                    "items":{
                                        "type": "object",
                                        "properties":{
                                            "name":{
                                                "type":"string"
                                            },
                                            "description":{
                                                "type":"string"
                                            }
                                        }
                                    }
                                }
                            }
                        }
                    }
                }
            }
        }
    }
}